<?xml version="1.0" encoding="UTF-8"?>
<svg width="48px" height="48px" viewBox="0 0 48 48" version="1.1" xmlns="http://www.w3.org/2000/svg" xmlns:xlink="http://www.w3.org/1999/xlink">
    <title>login_kaka0</title>
    <g id="Page-1" stroke="none" stroke-width="1" fill="none" fill-rule="evenodd">
        <g id="경주시L/M_아이콘" transform="translate(-108.000000, -153.000000)">
            <g id="login_kaka0" transform="translate(108.000000, 153.000000)">
                <circle id="Oval-Copy" fill="#FEE500" cx="24" cy="24" r="24"></circle>
                <g id="Group" transform="translate(12.000000, 13.000000)" fill="#000000" fill-opacity="0.902">
                    <path d="M11.5049608,0.6193848 C5.484336,0.6193848 0,4.61822 0,9.5509264 C0,12.617808 1.9917472,15.3235416 5.0253904,16.9311296 L3.748908,21.6164656 C3.6364088,22.0319456 4.1074992,22.3611336 4.4699256,22.1214336 L10.0648432,18.4102384 C10.537212,18.4562608 11.0172512,18.482468 11.5049608,18.482468 C17.8598872,18.482468 23.0105608,14.4836328 23.0105608,9.5509264 C23.0105608,4.61822 17.8598872,0.6193848 11.5049608,0.6193848" id="Path"></path>
                </g>
            </g>
        </g>
    </g>
</svg>